{
  "hosting": {
    "public": "out",
    "ignore": [
      "firebase.json",
      "**/.*",
      "**/node_modules/**"
    ]
  },
  "cleanUrls": true,
  "functions": {
    "predeploy": "npm --prefix \"$RESOURCE_DIR\" run build"
  }
}
